<?xml version="1.0" encoding="UTF-8" standalone="no"?>
<!-- Created with Inkscape (http://www.inkscape.org/) -->

<svg
   xmlns:dc="http://purl.org/dc/elements/1.1/"
   xmlns:cc="http://creativecommons.org/ns#"
   xmlns:rdf="http://www.w3.org/1999/02/22-rdf-syntax-ns#"
   xmlns:svg="http://www.w3.org/2000/svg"
   xmlns="http://www.w3.org/2000/svg"
   xmlns:sodipodi="http://sodipodi.sourceforge.net/DTD/sodipodi-0.dtd"
   xmlns:inkscape="http://www.inkscape.org/namespaces/inkscape"
   width="32px"
   height="32px"
   id="svg2993"
   version="1.1"
   inkscape:version="0.48.3.1 r9886"
   sodipodi:docname="huc.svg"
   inkscape:export-filename="/home/allan/projects/elevationtool-gp-js/static/images/huc.png"
   inkscape:export-xdpi="87.1875"
   inkscape:export-ydpi="87.1875">
  <defs
     id="defs2995" />
  <sodipodi:namedview
     id="base"
     pagecolor="#ffffff"
     bordercolor="#666666"
     borderopacity="1.0"
     inkscape:pageopacity="0.0"
     inkscape:pageshadow="2"
     inkscape:zoom="13.190476"
     inkscape:cx="2.8537902"
     inkscape:cy="14.5"
     inkscape:current-layer="layer1"
     showgrid="true"
     inkscape:grid-bbox="true"
     inkscape:document-units="px"
     showguides="true"
     inkscape:guide-bbox="true"
     inkscape:window-width="1366"
     inkscape:window-height="719"
     inkscape:window-x="0"
     inkscape:window-y="29"
     inkscape:window-maximized="1" />
  <metadata
     id="metadata2998">
    <rdf:RDF>
      <cc:Work
         rdf:about="">
        <dc:format>image/svg+xml</dc:format>
        <dc:type
           rdf:resource="http://purl.org/dc/dcmitype/StillImage" />
        <dc:title></dc:title>
      </cc:Work>
    </rdf:RDF>
  </metadata>
  <g
     id="layer1"
     inkscape:label="Layer 1"
     inkscape:groupmode="layer">
    <path
       sodipodi:type="star"
       style="fill:none;fill-rule:evenodd;stroke:#000000;stroke-width:1.44062894000000008;stroke-linecap:butt;stroke-linejoin:miter;stroke-opacity:1;fill-opacity:1;stroke-miterlimit:4;stroke-dasharray:none"
       id="path3061"
       sodipodi:sides="8"
       sodipodi:cx="11.068592"
       sodipodi:cy="10.241877"
       sodipodi:r1="13.296358"
       sodipodi:r2="8.5156136"
       sodipodi:arg1="0.8015258"
       sodipodi:arg2="1.1053704"
       inkscape:flatsided="false"
       inkscape:rounded="0.28"
       inkscape:randomized="0"
       d="m 20.31769,19.794223 c -1.055337,1.221224 -3.926312,-2.536061 -5.427261,-1.942534 -1.815376,0.717861 -2.089272,5.542945 -4.036266,5.684817 C 9.2443914,23.653805 9.8711071,18.966918 8.3900892,18.325273 6.5988203,17.549213 2.9932966,20.767388 1.5162452,19.490974 0.29502181,18.435637 4.0523064,15.564663 3.4587802,14.063713 2.7409191,12.248338 -2.0841649,11.974441 -2.2260369,10.027447 -2.3433364,8.4176759 2.3435507,9.0443917 2.9851957,7.5633738 3.7612558,5.7721048 0.54308032,2.1665811 1.8194944,0.68952974 2.8748312,-0.53169366 5.7458058,3.2255909 7.2467552,2.6320647 c 1.8153757,-0.7178611 2.0892723,-5.542945 4.0362668,-5.684817 1.609771,-0.1172996 0.983055,4.5695875 2.464073,5.2112325 1.791269,0.7760601 5.396793,-2.44211535 6.873844,-1.1657013 1.221223,1.0553368 -2.536061,3.9263115 -1.942535,5.4272608 0.717861,1.8153758 5.542945,2.0892724 5.684817,4.0362663 0.1173,1.609771 -4.569588,0.983056 -5.211233,2.464073 -0.77606,1.791269 2.442116,5.396793 1.165702,6.873844 z"
       transform="matrix(1.0412119,0,0,1.0412119,4.6322901,5.4533642)" />
    <path
       sodipodi:type="arc"
       style="fill:#ffffff;fill-opacity:1;stroke-width:1.5;stroke-miterlimit:4;stroke-dasharray:none"
       id="path3831"
       sodipodi:cx="17.47473"
       sodipodi:cy="16.306858"
       sodipodi:rx="1.7057762"
       sodipodi:ry="1.2888087"
       d="m 19.180506,16.306858 a 1.7057762,1.2888087 0 1 1 -3.411553,0 1.7057762,1.2888087 0 1 1 3.411553,0 z" />
    <path
       sodipodi:type="arc"
       style="fill:#ffffff;fill-opacity:1;stroke-width:1.5;stroke-miterlimit:4;stroke-dasharray:none"
       id="path3833"
       sodipodi:cx="-11.940434"
       sodipodi:cy="31.166065"
       sodipodi:rx="0.26534295"
       sodipodi:ry="0.22743683"
       d="m -11.675092,31.166065 a 0.26534295,0.22743683 0 0 1 -0.08678,0.168233 l -0.178561,-0.168233 z"
       sodipodi:start="0"
       sodipodi:end="0.83260988" />
    <path
       sodipodi:type="arc"
       style="fill:#000000;fill-opacity:1;stroke-width:3;stroke-miterlimit:4;stroke-dasharray:none"
       id="path3841"
       sodipodi:cx="-16.981949"
       sodipodi:cy="31.241877"
       sodipodi:rx="0.75812274"
       sodipodi:ry="0.75812274"
       d="m -16.223826,31.241877 a 0.75812274,0.75812274 0 1 1 -1.516246,0 0.75812274,0.75812274 0 1 1 1.516246,0 z"
       transform="matrix(2.3083333,0,0,2.3083333,55.466245,-56.032734)"
       inkscape:export-xdpi="797.14307"
       inkscape:export-ydpi="797.14307" />
  </g>
</svg>
